{
	"info": {
		"_postman_id": "b25a498b-1788-414d-94c4-13dc356ea113",
		"name": "shopkeeper",
		"schema": "https://schema.getpostman.com/json/collection/v2.1.0/collection.json"
	},
	"item": [
		{
			"name": "auth",
			"item": [
				{
					"name": "login",
					"request": {
						"method": "POST",
						"header": [],
						"body": {
							"mode": "raw",
							"raw": "{\n    \"phone_number\": \"01748880505\",\n    \"password\": \"dev@2022\"\n}\n",
							"options": {
								"raw": {
									"language": "json"
								}
							}
						},
						"url": {
							"raw": "http://127.0.0.1:8000/api/user/login/",
							"protocol": "http",
							"host": [
								"127",
								"0",
								"0",
								"1"
							],
							"port": "8000",
							"path": [
								"api",
								"user",
								"login",
								""
							]
						}
					},
					"response": []
				},
				{
					"name": "registration",
					"request": {
						"method": "POST",
						"header": [],
						"body": {
							"mode": "raw",
							"raw": "{\n    \"username\": \"mbrsgor\",\n    \"email\": \"mbrsagor@gmail.com\",\n    \"phone_number\": \"0174880505\",\n    \"role\": 4,\n    \"gender\": 0,\n    \"address\": \"Gaibandha, Sundorgonj, Dhormopur, Rangpur\",\n    \"password\": \"join_12345\"\n}",
							"options": {
								"raw": {
									"language": "json"
								}
							}
						},
						"url": {
							"raw": "http://127.0.0.1:8000/api/user/registration/",
							"protocol": "http",
							"host": [
								"127",
								"0",
								"0",
								"1"
							],
							"port": "8000",
							"path": [
								"api",
								"user",
								"registration",
								""
							]
						}
					},
					"response": []
				},
				{
					"name": "logout",
					"request": {
						"method": "GET",
						"header": [
							{
								"key": "Authorization",
								"value": "token 107d187a5db98376a5e8d34863a59e17d55d8d47",
								"type": "text"
							}
						],
						"url": {
							"raw": "http://127.0.0.1:8000/user/api/logout/?",
							"protocol": "http",
							"host": [
								"127",
								"0",
								"0",
								"1"
							],
							"port": "8000",
							"path": [
								"user",
								"api",
								"logout",
								""
							],
							"query": [
								{
									"key": "",
									"value": ""
								}
							]
						}
					},
					"response": []
				},
				{
					"name": "profile",
					"request": {
						"auth": {
							"type": "bearer",
							"bearer": [
								{
									"key": "token",
									"value": "eyJ0eXAiOiJKV1QiLCJhbGciOiJIUzI1NiJ9.eyJ0b2tlbl90eXBlIjoiYWNjZXNzIiwiZXhwIjoxNjQzNzM0NDA3LCJpYXQiOjE2NDM3MzQxMDcsImp0aSI6ImFlMGUwMDVhYzI2MjRjZTE5ZTIwOTYxODAxNzNmZjhhIiwidXNlcl9pZCI6MywibmFtZSI6Im1icnNnb3IiLCJlbWFpbCI6Im1icnNhZ29yQGdtYWlsLmNvbSIsImZpcnN0X25hbWUiOiIiLCJsYXN0X25hbWUiOiIiLCJpc19hY3RpdmUiOnRydWV9.8S4Az9dYb2xAp4kuvDJd6M-dDHYJ45GkjHmjrkF6jOs",
									"type": "string"
								}
							]
						},
						"method": "GET",
						"header": [
							{
								"key": "Authorization",
								"value": "token 107d187a5db98376a5e8d34863a59e17d55d8d47",
								"type": "text"
							}
						],
						"url": {
							"raw": "http://127.0.0.1:8000/api/user/profile/",
							"protocol": "http",
							"host": [
								"127",
								"0",
								"0",
								"1"
							],
							"port": "8000",
							"path": [
								"api",
								"user",
								"profile",
								""
							]
						}
					},
					"response": []
				},
				{
					"name": "change-password",
					"request": {
						"method": "PUT",
						"header": [
							{
								"key": "Authorization",
								"value": "token 107d187a5db98376a5e8d34863a59e17d55d8d47",
								"type": "text"
							}
						],
						"body": {
							"mode": "raw",
							"raw": "{\n    \"old_password\": \"join_12345\",\n    \"new_password\": \"join_123\",\n    \"confirm_password\": \"join_123\"\n}\n",
							"options": {
								"raw": {
									"language": "json"
								}
							}
						},
						"url": {
							"raw": "http://127.0.0.1:8000/user/api/change-password/5/",
							"protocol": "http",
							"host": [
								"127",
								"0",
								"0",
								"1"
							],
							"port": "8000",
							"path": [
								"user",
								"api",
								"change-password",
								"5",
								""
							]
						}
					},
					"response": []
				}
			]
		},
		{
			"name": "category",
			"item": [
				{
					"name": "category-list",
					"request": {
						"auth": {
							"type": "bearer",
							"bearer": [
								{
									"key": "token",
									"value": "eyJ0eXAiOiJKV1QiLCJhbGciOiJIUzI1NiJ9.eyJ0b2tlbl90eXBlIjoiYWNjZXNzIiwiZXhwIjoxNjQ0MDYwMDU0LCJpYXQiOjE2NDQwNTk3NTQsImp0aSI6IjNiZDYxZTYzNDQ0NjQ1MmRiODc4ODYyM2I3ZjBhNGFjIiwidXNlcl9pZCI6MSwibmFtZSI6ImRldiIsInBob25lX251bWJlciI6IjAxNzQ4ODgwNTA1IiwiZW1haWwiOiJkZXZAZ21haWwuY29tIiwiaXNfYWN0aXZlIjp0cnVlfQ.S6TxCKm_V0L8XOWc_OPNdfL3-zUoMFfbLBRn2D2pW-k",
									"type": "string"
								}
							]
						},
						"method": "GET",
						"header": [],
						"url": {
							"raw": "http://127.0.0.1:8000/api/base/category/",
							"protocol": "http",
							"host": [
								"127",
								"0",
								"0",
								"1"
							],
							"port": "8000",
							"path": [
								"api",
								"base",
								"category",
								""
							]
						}
					},
					"response": []
				},
				{
					"name": "category-create",
					"request": {
						"auth": {
							"type": "bearer",
							"bearer": [
								{
									"key": "token",
									"value": "eyJ0eXAiOiJKV1QiLCJhbGciOiJIUzI1NiJ9.eyJ0b2tlbl90eXBlIjoiYWNjZXNzIiwiZXhwIjoxNjQ0MDYwMDU0LCJpYXQiOjE2NDQwNTk3NTQsImp0aSI6IjNiZDYxZTYzNDQ0NjQ1MmRiODc4ODYyM2I3ZjBhNGFjIiwidXNlcl9pZCI6MSwibmFtZSI6ImRldiIsInBob25lX251bWJlciI6IjAxNzQ4ODgwNTA1IiwiZW1haWwiOiJkZXZAZ21haWwuY29tIiwiaXNfYWN0aXZlIjp0cnVlfQ.S6TxCKm_V0L8XOWc_OPNdfL3-zUoMFfbLBRn2D2pW-k",
									"type": "string"
								}
							]
						},
						"method": "POST",
						"header": [],
						"body": {
							"mode": "raw",
							"raw": "{\n    \"name\": \"MacBook\",\n    \"parent\": 1,\n    \"image\": null\n}",
							"options": {
								"raw": {
									"language": "json"
								}
							}
						},
						"url": {
							"raw": "http://127.0.0.1:8000/api/base/category/",
							"protocol": "http",
							"host": [
								"127",
								"0",
								"0",
								"1"
							],
							"port": "8000",
							"path": [
								"api",
								"base",
								"category",
								""
							]
						}
					},
					"response": []
				}
			]
		},
		{
			"name": "item",
			"item": [
				{
					"name": "all-item",
					"request": {
						"auth": {
							"type": "bearer",
							"bearer": [
								{
									"key": "token",
									"value": "eyJ0eXAiOiJKV1QiLCJhbGciOiJIUzI1NiJ9.eyJ0b2tlbl90eXBlIjoiYWNjZXNzIiwiZXhwIjoxNjQ0MDYwNDgwLCJpYXQiOjE2NDQwNjAxODAsImp0aSI6IjFhNDkzMTMyMTU4NzQ3YjJhNGJmYWFlNWQwZDI0ZjBlIiwidXNlcl9pZCI6MSwibmFtZSI6ImRldiIsInBob25lX251bWJlciI6IjAxNzQ4ODgwNTA1IiwiZW1haWwiOiJkZXZAZ21haWwuY29tIiwiaXNfYWN0aXZlIjp0cnVlfQ.L5cKV08KXEiZxrSdVAy-B_7RJcOKsUarN0A6Bm0tSOs",
									"type": "string"
								}
							]
						},
						"method": "GET",
						"header": [],
						"url": {
							"raw": "http://127.0.0.1:8000/api/base/item/",
							"protocol": "http",
							"host": [
								"127",
								"0",
								"0",
								"1"
							],
							"port": "8000",
							"path": [
								"api",
								"base",
								"item",
								""
							]
						}
					},
					"response": []
				},
				{
					"name": "create-item",
					"request": {
						"auth": {
							"type": "bearer",
							"bearer": [
								{
									"key": "token",
									"value": "eyJ0eXAiOiJKV1QiLCJhbGciOiJIUzI1NiJ9.eyJ0b2tlbl90eXBlIjoiYWNjZXNzIiwiZXhwIjoxNjQ0MDU5NzI0LCJpYXQiOjE2NDQwNTk0MjQsImp0aSI6IjRiMTJiNTQ4YThkMDQ2MDM4NWVlMTBiZTc1Y2QxYzA2IiwidXNlcl9pZCI6MSwibmFtZSI6ImRldiIsInBob25lX251bWJlciI6IjAxNzQ4ODgwNTA1IiwiZW1haWwiOiJkZXZAZ21haWwuY29tIiwiaXNfYWN0aXZlIjp0cnVlfQ.B9ih-S74t5LWdbZgGA6B7Bdqq4uQd2zzmrZqkK8Dh08",
									"type": "string"
								}
							]
						},
						"method": "POST",
						"header": [],
						"body": {
							"mode": "raw",
							"raw": "{\n    \"item_name\": \"MacBook Air M1 2022\",\n    \"category_name\": 1,\n    \"brand_name\": 2,\n    \"item_type\": 1,\n    \"price\": \"12500.000000\",\n    \"discount_price\": \"55.000000\",\n    \"purses_price\": \"1000.000000\",\n    \"status\": 0,\n    \"quantity\": 10,\n    \"serializer_number\": \"56565656\",\n    \"is_available\": true,\n    \"description\": \"Conveniently syndicate orthogonal opportunities via interactive outsourcing. Dynamically envisioneer strategic process improvements with intuitive niche markets. Assertively predominate holistic collaboration.\",\n    \"image\": null\n}",
							"options": {
								"raw": {
									"language": "json"
								}
							}
						},
						"url": {
							"raw": "http://127.0.0.1:8000/api/base/item/",
							"protocol": "http",
							"host": [
								"127",
								"0",
								"0",
								"1"
							],
							"port": "8000",
							"path": [
								"api",
								"base",
								"item",
								""
							]
						}
					},
					"response": []
				},
				{
					"name": "item-details",
					"request": {
						"auth": {
							"type": "bearer",
							"bearer": [
								{
									"key": "token",
									"value": "eyJ0eXAiOiJKV1QiLCJhbGciOiJIUzI1NiJ9.eyJ0b2tlbl90eXBlIjoiYWNjZXNzIiwiZXhwIjoxNjQ0MDU5NzI0LCJpYXQiOjE2NDQwNTk0MjQsImp0aSI6IjRiMTJiNTQ4YThkMDQ2MDM4NWVlMTBiZTc1Y2QxYzA2IiwidXNlcl9pZCI6MSwibmFtZSI6ImRldiIsInBob25lX251bWJlciI6IjAxNzQ4ODgwNTA1IiwiZW1haWwiOiJkZXZAZ21haWwuY29tIiwiaXNfYWN0aXZlIjp0cnVlfQ.B9ih-S74t5LWdbZgGA6B7Bdqq4uQd2zzmrZqkK8Dh08",
									"type": "string"
								}
							]
						},
						"method": "GET",
						"header": [],
						"url": {
							"raw": "http://127.0.0.1:8000/api/base/item/5/",
							"protocol": "http",
							"host": [
								"127",
								"0",
								"0",
								"1"
							],
							"port": "8000",
							"path": [
								"api",
								"base",
								"item",
								"5",
								""
							]
						}
					},
					"response": []
				},
				{
					"name": "item-update",
					"request": {
						"auth": {
							"type": "bearer",
							"bearer": [
								{
									"key": "token",
									"value": "eyJ0eXAiOiJKV1QiLCJhbGciOiJIUzI1NiJ9.eyJ0b2tlbl90eXBlIjoiYWNjZXNzIiwiZXhwIjoxNjQ0MDU5NzI0LCJpYXQiOjE2NDQwNTk0MjQsImp0aSI6IjRiMTJiNTQ4YThkMDQ2MDM4NWVlMTBiZTc1Y2QxYzA2IiwidXNlcl9pZCI6MSwibmFtZSI6ImRldiIsInBob25lX251bWJlciI6IjAxNzQ4ODgwNTA1IiwiZW1haWwiOiJkZXZAZ21haWwuY29tIiwiaXNfYWN0aXZlIjp0cnVlfQ.B9ih-S74t5LWdbZgGA6B7Bdqq4uQd2zzmrZqkK8Dh08",
									"type": "string"
								}
							]
						},
						"method": "PUT",
						"header": [],
						"body": {
							"mode": "raw",
							"raw": "{\n    \"id\": 5,\n    \"user\": 1,\n    \"item_name\": \"MacBook Air M1 2022\",\n    \"category_name\": 1,\n    \"brand_name\": 2,\n    \"item_type\": 1,\n    \"price\": \"12500.000000\",\n    \"discount_price\": \"55.000000\",\n    \"purses_price\": \"1000.000000\",\n    \"status\": 0,\n    \"quantity\": 12,\n    \"serializer_number\": \"56565656\",\n    \"is_available\": true,\n    \"description\": \"Conveniently syndicate orthogonal opportunities via interactive outsourcing. Dynamically envisioneer strategic process improvements with intuitive niche markets. Assertively predominate holistic collaboration.\",\n    \"image\": null\n}",
							"options": {
								"raw": {
									"language": "json"
								}
							}
						},
						"url": {
							"raw": "http://127.0.0.1:8000/api/base/item/5/",
							"protocol": "http",
							"host": [
								"127",
								"0",
								"0",
								"1"
							],
							"port": "8000",
							"path": [
								"api",
								"base",
								"item",
								"5",
								""
							]
						}
					},
					"response": []
				}
			]
		},
		{
			"name": "sell",
			"item": []
		}
	]
}